{
    "vcenter_server":"", 
    "insecure_connection": "true",
    "username":"administrator@vsphere.local",
    "password":"*",
    "datastore":"",
    "folder": "",
    "cluster": "",
    "network": "",
    "ssh_username": "",
    "ssh_password": ""
}